
[Mesh]
  type = GeneratedMesh
  dim = 3
  nx = 12
  ny = 12
  nz = 6
  xmin = -3.0
  xmax = 3.0
  ymin = -3.0
  ymax = 3.0
  zmin = -1.5
  zmax = 1.5
  elem_type = HEX8
[]

[MeshModifiers]
  [./cnode]
    type = AddExtraNodeset
    coord = '0.0 0.0 0.0'
    new_boundary = 100
  [../]
[]

[GlobalParams]
  len_scale = 1.0

  alpha1 = -0.1722883
  alpha11 = -0.07253
  alpha111 = 0.26
  alpha12 = 0.75
  alpha112 = 0.61
  alpha123 = -3.67

  G110 = 0.173
  G11_G110 = 0.6
  G12_G110 = 0
  G44_G110 = 0.3
  G44P_G110 = 0.3

  polar_x = polar_x
  polar_y = polar_y
  polar_z = polar_z
  potential_E_int = potential_E_int

  displacements = 'u_x u_y u_z'
[]



[Variables]
  [./global_strain]
    order = SIXTH
    family = SCALAR
  [../]
  [./polar_x]
    order = FIRST
    family = LAGRANGE
    [./InitialCondition]
      type = RandomIC
      min = -0.01e-5
      max = 0.01e-5
      seed = 5
    [../]
  [../]
  [./polar_y]
    order = FIRST
    family = LAGRANGE
    [./InitialCondition]
      type = RandomIC
      min = -0.01e-5
      max = 0.01e-5
      seed = 5
    [../]
  [../]
  [./polar_z]
    order = FIRST
    family = LAGRANGE
    [./InitialCondition]
      type = RandomIC
      min = -0.01e-5
      max = 0.01e-5
      seed = 5
    [../]
  [../]

  [./potential_E_int]
    order = FIRST
    family = LAGRANGE
  [../]

  [./u_x]
    order = FIRST
    family = LAGRANGE
  [../]
  [./u_y]
    order = FIRST
    family = LAGRANGE
  [../]
  [./u_z]
    order = FIRST
    family = LAGRANGE
  [../]
[]

[AuxVariables]
  [./disp_x]
  [../]
  [./disp_y]
  [../]
  [./disp_z]
  [../]
  [./e00]
    order = CONSTANT
    family = MONOMIAL
  [../]
  [./e01]
    order = CONSTANT
    family = MONOMIAL
  [../]
  [./e10]
    order = CONSTANT
    family = MONOMIAL
  [../]
  [./e11]
    order = CONSTANT
    family = MONOMIAL
  [../]
[]

[AuxKernels]
  [./disp_x]
    type = GlobalDisplacementAux
    variable = disp_x
    scalar_global_strain = global_strain
    global_strain_uo = global_strain_uo
    component = 0
  [../]
  [./disp_y]
    type = GlobalDisplacementAux
    variable = disp_y
    scalar_global_strain = global_strain
    global_strain_uo = global_strain_uo
    component = 1
  [../]
  [./disp_z]
    type = GlobalDisplacementAux
    variable = disp_z
    scalar_global_strain = global_strain
    global_strain_uo = global_strain_uo
    component = 2
  [../]
  [./e00]
    type = RankTwoAux
    variable = e00
    rank_two_tensor = total_strain
    index_i = 0
    index_j = 0
  [../]
  [./e01]
    type = RankTwoAux
    variable = e01
    rank_two_tensor = total_strain
    index_i = 0
    index_j = 1
  [../]
  [./e10]
    type = RankTwoAux
    variable = e10
    rank_two_tensor = total_strain
    index_i = 1
    index_j = 0
  [../]
  [./e11]
    type = RankTwoAux
    variable = e11
    rank_two_tensor = total_strain
    index_i = 1
    index_j = 1
  [../]
[]

[ScalarKernels]
  [./global_strain]
    type = GlobalStrain
    variable = global_strain
    global_strain_uo = global_strain_uo
  [../]
[]

[Materials]
  [./eigen_strain]
    type = ComputeEigenstrain
    block = '0'
    eigen_base = '0. 0 0 0 0 0 0 0 0'
    eigenstrain_name = eigenstrain
    prefactor = 0.0
  [../]

  [./elasticity_tensor_1]
    type = ComputeElasticityTensor
    fill_method = symmetric9
    C_ijkl = '380. 150. 150. 380. 150. 380. 110. 110. 110.'
  [../]

  [./strain_1]
    type = ComputeSmallStrain
    global_strain = global_strain
    eigenstrain_names = eigenstrain
  [../]

  [./stress_1]
    type = ComputeLinearElasticStress
  [../]

  [./global_strain]
    type = ComputeGlobalStrain
    scalar_global_strain = global_strain
    global_strain_uo = global_strain_uo
  [../]

  [./slab_ferroelectric]
    type = ComputeElectrostrictiveTensor
    Q_mnkl = '-0.089 0.026 0.026 -0.089 0.026 -0.089 -0.03375 -0.03375 -0.03375'
    C_ijkl = '380. 150. 150. 380. 150. 380. 110. 110. 110.'
  [../]
[]


[Kernels]
  #Elastic problem
  [./TensorMechanics]
  [../]
  [./bed_x]
    type = BulkEnergyDerivativeSixth
    variable = polar_x
    component = 0
  [../]
  [./bed_y]
    type = BulkEnergyDerivativeSixth
    variable = polar_y
    component = 1
  [../]
  [./bed_z]
    type = BulkEnergyDerivativeSixth
    variable = polar_z
    component = 2
  [../]
  [./walled_x]
    type = WallEnergyDerivative
    variable = polar_x
    component = 0
 [../]
 [./walled_y]
    type = WallEnergyDerivative
    variable = polar_y
    component = 1
  [../]
  [./walled_z]
     type = WallEnergyDerivative
     variable = polar_z
     component = 2
  [../]
  [./ferroelectriccouplingp_xx]
    type = FerroelectricCouplingP
    variable = polar_x
    disp_x = disp_x
    disp_y = disp_y
    disp_z = disp_z
    component = 0
  [../]
  [./ferroelectriccouplingp_yy]
    type = FerroelectricCouplingP
    variable = polar_y
    disp_x = disp_x
    disp_y = disp_y
    disp_z = disp_z
    component = 1
  [../]
  [./ferroelectriccouplingp_zz]
    type = FerroelectricCouplingP
    variable = polar_z
    disp_x = disp_x #should this be u_x? 
    disp_y = disp_y
    disp_z = disp_z
    component = 2
  [../]
  [./ferroelectriccouplingX_xx]
    type = FerroelectricCouplingX
    variable = u_x
    disp_x = u_x 
    disp_y = u_y
    disp_z = u_z
    component = 0
  [../]
  [./ferroelectriccouplingX_yy]
    type = FerroelectricCouplingX
    variable = u_y
    disp_x = u_x 
    disp_y = u_y
    disp_z = u_z
    component = 1
  [../]
  [./ferroelectriccouplingX_zz]
    type = FerroelectricCouplingX
    variable = u_z
    disp_x = u_x 
    disp_y = u_y
    disp_z = u_z
    component = 2
  [../]
  [./polar_x_electric_E]
     type = PolarElectricEStrong
     variable = potential_E_int
  [../]
  [./FE_E_int]
     type = Electrostatics
     variable = potential_E_int
     permittivity = 0.08854187
  [../]

  [./polar_electric_px]
     type = PolarElectricPStrong
     variable = polar_x
     component = 0
  [../]
  [./polar_electric_py]
     type = PolarElectricPStrong
     variable = polar_y
     component = 1
  [../]
  [./polar_electric_pz]
     type = PolarElectricPStrong
     variable = polar_z
     component = 2
  [../]

  [./polar_x_time]
     type = TimeDerivativeScaled
     variable=polar_x
     time_scale = 1.0
  [../]
  [./polar_y_time]
     type = TimeDerivativeScaled
     variable=polar_y
     time_scale = 1.0
  [../]
  [./polar_z_time]
     type = TimeDerivativeScaled
     variable = polar_z
     time_scale = 1.0
  [../]
[]


[BCs]
  [./Periodic]
    [./xy]
      auto_direction = 'x y z'
      variable = 'u_x u_y u_z polar_x polar_y polar_z'
    [../]
  [../]

  [./potential_E_int_front]
    type = DirichletBC
    boundary = 'front'
    value = 0.0
    variable = potential_E_int
  [../]

  [./potential_E_int_back]
    type = DirichletBC
    boundary = 'back'
    value = 0.0
    variable = potential_E_int
  [../]

  [./potential_E_int_right]
    type = DirichletBC
    boundary = 'right'
    value = 0.0
    variable = potential_E_int
  [../]

  [./potential_E_int_left]
    type = DirichletBC
    boundary = 'left'
    value = 0.0
    variable = potential_E_int
  [../]

  [./potential_E_int_bottom]
    type = DirichletBC
    boundary = 'bottom'
    value = 0.0
    variable = potential_E_int
  [../]

  [./potential_E_int_top]
    type = DirichletBC
    boundary = 'top'
    value = 0.0
    variable = potential_E_int
  [../]

  # fix center point location
  [./centerfix_x]
    type = PresetBC
    boundary = 100
    variable = u_x
    value = 0
  [../]
  [./centerfix_y]
    type = PresetBC
    boundary = 100
    variable = u_y
    value = 0
  [../]
  [./centerfix_z]
    type = PresetBC
    boundary = 100
    variable = u_z
    value = 0
  [../]
[]

[Postprocessors]
   [./Fbulk]
      type = BulkEnergy
      execute_on = 'initial timestep_end'
    [../]
    [./Fwall]
      type = WallEnergy
      execute_on = 'initial timestep_end'
    [../]
    [./Felastic]
      type = ElasticEnergy
      execute_on = 'initial timestep_end'
    [../]
    [./Fcoupled]
      type = ElectrostrictiveCouplingEnergy
      execute_on = 'initial timestep_end'
      disp_x = disp_x
      disp_y = disp_y
      disp_z = disp_z
      q11 = -26.02 #using the definition that q_{ijkl} = C_{ijmn} Q_{mnkl}
      q12 = 0.43
      q44 = -14.85
    [../]
    [./Felec]
      type = ElectrostaticEnergy
      execute_on = 'initial timestep_end'
    [../]
    [./Ftotal]
      type = LinearCombinationPostprocessor 
      pp_names = 'Fbulk Fwall Fcoupled Felec' 
      pp_coefs = ' 1 1 1 1' 
      execute_on = 'initial timestep_end'
    [../]
    [./perc_change]
     type = PercentChangePostprocessor
     postprocessor = Ftotal
     execute_on = 'initial timestep_end'
   [../]
[]

[UserObjects]
  [./global_strain_uo]
    type = GlobalATiO3MaterialRVEUserObject
    Q11 = -0.089
    Q12 = 0.026
    Q44 = -0.03375
    C11 = 380.0
    C12 = 150.0
    C44 = 110.0
    execute_on = 'Initial Linear Nonlinear'
  [../]
[]

[Preconditioning]
  [./smp]
    type = SMP
    full = true
    petsc_options_iname = '-ksp_gmres_restart -snes_atol -snes_rtol -ksp_rtol -pc_type'
    petsc_options_value = '    121               1e-10      1e-8      1e-6    bjacobi'
  [../]
[]

[Executioner]
  type = Transient
  solve_type = 'NEWTON'
  scheme = 'implicit-euler'
  dtmin = 1e-13
  dtmax = 0.35
  num_steps = 7
[]

[Outputs]
  print_linear_residuals = false
  [./out]
    type = Exodus
    file_base = outPTO_test_UO
    elemental_as_nodal = true
    interval = 1
  [../]
[]
